\relax 
\providecommand\hyper@newdestlabel[2]{}
\providecommand\HyperFirstAtBeginDocument{\AtBeginDocument}
\HyperFirstAtBeginDocument{\ifx\hyper@anchor\@undefined
\global\let\oldcontentsline\contentsline
\gdef\contentsline#1#2#3#4{\oldcontentsline{#1}{#2}{#3}}
\global\let\oldnewlabel\newlabel
\gdef\newlabel#1#2{\newlabelxx{#1}#2}
\gdef\newlabelxx#1#2#3#4#5#6{\oldnewlabel{#1}{{#2}{#3}}}
\AtEndDocument{\ifx\hyper@anchor\@undefined
\let\contentsline\oldcontentsline
\let\newlabel\oldnewlabel
\fi}
\fi}
\global\let\hyper@last\relax 
\gdef\HyperFirstAtBeginDocument#1{#1}
\providecommand\HyField@AuxAddToFields[1]{}
\providecommand\HyField@AuxAddToCoFields[2]{}
\citation{aljoufie2013}
\citation{pham2011}
\citation{tomas2016}
\citation{banzhaf2008}
\citation{banzhaf2009}
\citation{bohm1998}
\citation{montanges2015}
\citation{stewart2012}
\citation{stewart2012}
\@writefile{toc}{\contentsline {section}{\numberline {1}Introduction}{1}{section.1}}
\newlabel{}{{1}{1}{Introduction}{section.1}{}}
\citation{berger2018}
\citation{novack2017}
\citation{mather2004}
\citation{wieland2016,tam2018,simanjuntak2019}
\citation{herold2005}
\citation{herold2002b,herold2003}
\citation{lu2007}
\@writefile{toc}{\contentsline {section}{\numberline {2}Theoretical background}{3}{section.2}}
\newlabel{theoreticalbackground}{{2}{3}{Theoretical background}{section.2}{}}
\@writefile{toc}{\contentsline {subsection}{\numberline {2.1}A brief discussion on image classification}{3}{subsection.2.1}}
\citation{bruzzone2009}
\citation{mountrakis2011}
\citation{theodoridis2008,webb2011}
\citation{LehnerBlaschke2019}
\citation{pauleit2000}
\citation{hecht2013}
\citation{moon2009}
\citation{banzhaf2008}
\citation{banzhaf2008}
\citation{herold2003}
\citation{deng2009}
\@writefile{toc}{\contentsline {subsection}{\numberline {2.2}Urban structure types}{4}{subsection.2.2}}
\newlabel{ssec:teu}{{2.2}{4}{Urban structure types}{subsection.2.2}{}}
\@writefile{toc}{\contentsline {subsection}{\numberline {2.3}Spatial metrics}{4}{subsection.2.3}}
\newlabel{ssec:metricas}{{2.3}{4}{Spatial metrics}{subsection.2.3}{}}
\@writefile{lof}{\contentsline {figure}{\numberline {1}{\ignorespaces Urban structure analysis according to the spatial scale. Adapted from \citet  {banzhaf2008}.\relax }}{5}{figure.caption.1}}
\providecommand*\caption@xref[2]{\@setref\relax\@undefined{#1}}
\newlabel{fig:img_TEUs_ex}{{1}{5}{Urban structure analysis according to the spatial scale. Adapted from \citet {banzhaf2008}.\relax }{figure.caption.1}{}}
\newlabel{vizinhos}{{1}{5}{Spatial metrics}{equation.2.1}{}}
\newlabel{manchas}{{2}{6}{Spatial metrics}{equation.2.2}{}}
\newlabel{pctcbrtr}{{3}{6}{Spatial metrics}{equation.2.3}{}}
\newlabel{coefvar}{{4}{6}{Spatial metrics}{equation.2.4}{}}
\newlabel{denman}{{5}{6}{Spatial metrics}{equation.2.5}{}}
\newlabel{denbor}{{6}{6}{Spatial metrics}{equation.2.6}{}}
\@writefile{toc}{\contentsline {section}{\numberline {3}UST mapping framework based on spatial metrics classification}{7}{section.3}}
\newlabel{sec:proposta}{{3}{7}{UST mapping framework based on spatial metrics classification}{section.3}{}}
\@writefile{lof}{\contentsline {figure}{\numberline {2}{\ignorespaces Method structure flowchart.\relax }}{7}{figure.caption.2}}
\newlabel{fig:method_flux}{{2}{7}{Method structure flowchart.\relax }{figure.caption.2}{}}
\citation{chavez1989}
\@writefile{toc}{\contentsline {section}{\numberline {4}Experiments}{8}{section.4}}
\newlabel{sec:experiments}{{4}{8}{Experiments}{section.4}{}}
\@writefile{toc}{\contentsline {subsection}{\numberline {4.1}Study area and data}{8}{subsection.4.1}}
\newlabel{ssec:studyarea}{{4.1}{8}{Study area and data}{subsection.4.1}{}}
\citation{wieland2016}
\@writefile{lof}{\contentsline {figure}{\numberline {3}{\ignorespaces Study area location.\relax }}{9}{figure.caption.3}}
\newlabel{fig:areaestudo}{{3}{9}{Study area location.\relax }{figure.caption.3}{}}
\@writefile{lot}{\contentsline {table}{\numberline {1}{\ignorespaces Training and testing samples of LULC prymary classes and USTs classes.\relax }}{9}{table.caption.5}}
\newlabel{tab:samplesPrimaryUts}{{1}{9}{Training and testing samples of LULC prymary classes and USTs classes.\relax }{table.caption.5}{}}
\newlabel{fig:imgStudy}{{4(a)}{10}{Subfigure 4(a)}{subfigure.4.1}{}}
\newlabel{sub@fig:imgStudy}{{(a)}{10}{Subfigure 4(a)\relax }{subfigure.4.1}{}}
\newlabel{fig:spatDistPrimarySamples}{{4(b)}{10}{Subfigure 4(b)}{subfigure.4.2}{}}
\newlabel{sub@fig:spatDistPrimarySamples}{{(b)}{10}{Subfigure 4(b)\relax }{subfigure.4.2}{}}
\newlabel{fig:spatDistUSTSamples}{{4(c)}{10}{Subfigure 4(c)}{subfigure.4.3}{}}
\newlabel{sub@fig:spatDistUSTSamples}{{(c)}{10}{Subfigure 4(c)\relax }{subfigure.4.3}{}}
\@writefile{lof}{\contentsline {figure}{\numberline {4}{\ignorespaces LANDSAT-8 OLI image in RGB composition (4-3-2), training samples ({\relax \fontsize  {17.28}{22}\selectfont  $\bullet $}), point-shaped testing samples for primary classes ($\blacktriangle $), and region-shaped testing samples for UST classes ($\blacksquare $). The corresponding class for each color is listed in Table\nobreakspace  {}\ref  {tab:samplesPrimaryUts}.\relax }}{10}{figure.caption.4}}
\newlabel{ImagensEstudo}{{4}{10}{LANDSAT-8 OLI image in RGB composition (4-3-2), training samples ({\Large $\bullet $}), point-shaped testing samples for primary classes ($\blacktriangle $), and region-shaped testing samples for UST classes ($\blacksquare $). The corresponding class for each color is listed in Table~\ref {tab:samplesPrimaryUts}.\relax }{figure.caption.4}{}}
\@writefile{lof}{\contentsline {subfigure}{\numberline{(a)}{\ignorespaces {Study image}}}{10}{figure.caption.4}}
\@writefile{lof}{\contentsline {subfigure}{\numberline{(b)}{\ignorespaces {Primary samples}}}{10}{figure.caption.4}}
\@writefile{lof}{\contentsline {subfigure}{\numberline{(c)}{\ignorespaces {UST samples}}}{10}{figure.caption.4}}
\citation{congalton2009}
\citation{wieland2016}
\citation{grizonnet2017}
\citation{huang2015}
\@writefile{toc}{\contentsline {subsection}{\numberline {4.2}Experiment design}{11}{subsection.4.2}}
\newlabel{ssec:design}{{4.2}{11}{Experiment design}{subsection.4.2}{}}
\citation{congalton2009}
\@writefile{toc}{\contentsline {subsection}{\numberline {4.3}Results}{12}{subsection.4.3}}
\newlabel{ssec:results}{{4.3}{12}{Results}{subsection.4.3}{}}
\newlabel{fig:ClassPrim_Lin_OAA}{{5(a)}{13}{Subfigure 5(a)}{subfigure.5.1}{}}
\newlabel{sub@fig:ClassPrim_Lin_OAA}{{(a)}{13}{Subfigure 5(a)\relax }{subfigure.5.1}{}}
\newlabel{fig:ClassPrim_Pol_OAA}{{5(b)}{13}{Subfigure 5(b)}{subfigure.5.2}{}}
\newlabel{sub@fig:ClassPrim_Pol_OAA}{{(b)}{13}{Subfigure 5(b)\relax }{subfigure.5.2}{}}
\newlabel{fig:ClassPrim_RBF_OAA}{{5(c)}{13}{Subfigure 5(c)}{subfigure.5.3}{}}
\newlabel{sub@fig:ClassPrim_RBF_OAA}{{(c)}{13}{Subfigure 5(c)\relax }{subfigure.5.3}{}}
\newlabel{fig:ClassPrim_Lin_OAO}{{5(d)}{13}{Subfigure 5(d)}{subfigure.5.4}{}}
\newlabel{sub@fig:ClassPrim_Lin_OAO}{{(d)}{13}{Subfigure 5(d)\relax }{subfigure.5.4}{}}
\newlabel{fig:ClassPrim_Pol_OAO}{{5(e)}{13}{Subfigure 5(e)}{subfigure.5.5}{}}
\newlabel{sub@fig:ClassPrim_Pol_OAO}{{(e)}{13}{Subfigure 5(e)\relax }{subfigure.5.5}{}}
\newlabel{fig:ClassPrim_RBF_OAO}{{5(f)}{13}{Subfigure 5(f)}{subfigure.5.6}{}}
\newlabel{sub@fig:ClassPrim_RBF_OAO}{{(f)}{13}{Subfigure 5(f)\relax }{subfigure.5.6}{}}
\@writefile{lof}{\contentsline {figure}{\numberline {5}{\ignorespaces Accuracy of primary classifications according to kernel functions and multiclass strategies.\relax }}{13}{figure.caption.6}}
\newlabel{fig:GrafsprimCla}{{5}{13}{Accuracy of primary classifications according to kernel functions and multiclass strategies.\relax }{figure.caption.6}{}}
\@writefile{lof}{\contentsline {subfigure}{\numberline{(a)}{\ignorespaces {Linear/OAA}}}{13}{figure.caption.6}}
\@writefile{lof}{\contentsline {subfigure}{\numberline{(b)}{\ignorespaces {Polynomial/OAA}}}{13}{figure.caption.6}}
\@writefile{lof}{\contentsline {subfigure}{\numberline{(c)}{\ignorespaces {RBF/OAA}}}{13}{figure.caption.6}}
\@writefile{lof}{\contentsline {subfigure}{\numberline{(d)}{\ignorespaces {Linear/OAA}}}{13}{figure.caption.6}}
\@writefile{lof}{\contentsline {subfigure}{\numberline{(e)}{\ignorespaces {Polynomial/OAO}}}{13}{figure.caption.6}}
\@writefile{lof}{\contentsline {subfigure}{\numberline{(f)}{\ignorespaces {RBF/OAO}}}{13}{figure.caption.6}}
\@writefile{lof}{\contentsline {figure}{\numberline {6}{\ignorespaces \leavevmode {\color [rgb]{1,0,1}Accuracy of UST classification results obtained by the proposed and alternative method. Results of common kernel function and multiclass strategy for SVM, and alternative method by Random Forest classifier (RF), are denoted with similar colors. The mean kappa value ($\mu $) and one standard deviation limits ($\mu \pm \sigma $) are included for reference.}\relax }}{14}{figure.caption.7}}
\newlabel{fig:utsCla}{{6}{14}{\textcolor [rgb]{1,0,1}{Accuracy of UST classification results obtained by the proposed and alternative method. Results of common kernel function and multiclass strategy for SVM, and alternative method by Random Forest classifier (RF), are denoted with similar colors. The mean kappa value ($\mu $) and one standard deviation limits ($\mu \pm \sigma $) are included for reference.}\relax }{figure.caption.7}{}}
\newlabel{fig:BestPrimary}{{7(a)}{15}{Subfigure 7(a)}{subfigure.7.1}{}}
\newlabel{sub@fig:BestPrimary}{{(a)}{15}{Subfigure 7(a)\relax }{subfigure.7.1}{}}
\newlabel{fig:BestClassTEU3}{{7(b)}{15}{Subfigure 7(b)}{subfigure.7.2}{}}
\newlabel{sub@fig:BestClassTEU3}{{(b)}{15}{Subfigure 7(b)\relax }{subfigure.7.2}{}}
\newlabel{fig:RBC500}{{7(c)}{15}{Subfigure 7(c)}{subfigure.7.3}{}}
\newlabel{sub@fig:RBC500}{{(c)}{15}{Subfigure 7(c)\relax }{subfigure.7.3}{}}
\newlabel{fig:groundtruth}{{7(d)}{15}{Subfigure 7(d)}{subfigure.7.4}{}}
\newlabel{sub@fig:groundtruth}{{(d)}{15}{Subfigure 7(d)\relax }{subfigure.7.4}{}}
\@writefile{lof}{\contentsline {figure}{\numberline {7}{\ignorespaces Best classifications results and an empirical mapping.\relax }}{15}{figure.caption.8}}
\newlabel{fig:CompClass}{{7}{15}{Best classifications results and an empirical mapping.\relax }{figure.caption.8}{}}
\@writefile{lof}{\contentsline {subfigure}{\numberline{(a)}{\ignorespaces {Primary classification}}}{15}{figure.caption.8}}
\@writefile{lof}{\contentsline {subfigure}{\numberline{(b)}{\ignorespaces {Proposed method}}}{15}{figure.caption.8}}
\@writefile{lof}{\contentsline {subfigure}{\numberline{(c)}{\ignorespaces {Alternative method}}}{15}{figure.caption.8}}
\@writefile{lof}{\contentsline {subfigure}{\numberline{(d)}{\ignorespaces {Empirical classification}}}{15}{figure.caption.8}}
\@writefile{toc}{\contentsline {section}{\numberline {5}Conclusions}{15}{section.5}}
\newlabel{sec:conclusions}{{5}{15}{Conclusions}{section.5}{}}
\@writefile{lot}{\contentsline {table}{\numberline {2}{\ignorespaces $p$-values ($\times 10^{-3}$) from a bilateral test to compare kappa values from UST classification of proposed and alternative methods.\relax }}{16}{table.caption.9}}
\newlabel{tab:TH_rho_RBC}{{2}{16}{$p$-values ($\times 10^{-3}$) from a bilateral test to compare kappa values from UST classification of proposed and alternative methods.\relax }{table.caption.9}{}}
\bibstyle{elsarticle-harv}
\bibdata{BibTex_FAPESP_LUCCAS}
\bibcite{aljoufie2013}{{1}{2013}{{Aljoufie et~al.}}{{Aljoufie, Zuidgeest, Brussel and [van Maarseveen]}}}
\bibcite{banzhaf2008}{{2}{2008}{{Banzhaf and Hofer}}{{}}}
\bibcite{banzhaf2009}{{3}{2009}{{Banzhaf et~al.}}{{Banzhaf, H\"ofer and Romero}}}
\bibcite{berger2018}{{4}{2018}{{Berger et~al.}}{{Berger, Voltersen, Schmullius and Hese}}}
\bibcite{bohm1998}{{5}{1998}{{B\"ohm}}{{}}}
\bibcite{bruzzone2009}{{6}{2009}{{Bruzzone and Persello}}{{}}}
\bibcite{chavez1989}{{7}{1989}{{Chavez and Kwarteng}}{{}}}
\bibcite{congalton2009}{{8}{2009}{{Congalton and Green}}{{}}}
\bibcite{deng2009}{{9}{2009}{{Deng et~al.}}{{Deng, Wand, Hong and Qi}}}
\bibcite{grizonnet2017}{{10}{2017}{{Grizonnet et~al.}}{{Grizonnet, Michel, Poughon, Inglada, Savinaud and Cresson}}}
\bibcite{hecht2013}{{11}{2013}{{Hecht et~al.}}{{Hecht, Herold, Meinel and Buchroithner}}}
\bibcite{herold2003}{{12}{2003}{{Herold et~al.}}{{Herold, Goldstein and Clarke}}}
\bibcite{herold2005}{{13}{2005}{{Herold et~al.}}{{Herold, Hemphill, Dietzel and Clarke}}}
\bibcite{herold2002b}{{14}{2002}{{Herold et~al.}}{{Herold, Scepan and Clarke}}}
\bibcite{huang2015}{{15}{2015}{{Huang et~al.}}{{Huang, Liu and Zhang}}}
\bibcite{LehnerBlaschke2019}{{16}{2019}{{Lehner and Blaschke}}{{}}}
\bibcite{lu2007}{{17}{2007}{{Lu and Weng}}{{}}}
\bibcite{mather2004}{{18}{2004}{{Mather}}{{}}}
\bibcite{montanges2015}{{19}{2015}{{{Montanges} et~al.}}{{{Montanges}, {Moser}, {Taubenb\IeC {\"o}ck}, {Wurm} and {Tuia}}}}
\bibcite{moon2009}{{20}{2009}{{Moon et~al.}}{{Moon, Downes, Rujner and Storch}}}
\bibcite{mountrakis2011}{{21}{2011}{{Mountrakis et~al.}}{{Mountrakis, Im and Ogole}}}
\bibcite{novack2017}{{22}{2017}{{Novack and Stilla}}{{}}}
\bibcite{pauleit2000}{{23}{2000}{{Pauleit and Duhme}}{{}}}
\bibcite{pham2011}{{24}{2011}{{Pham et~al.}}{{Pham, Yamaguchi and Bui}}}
\bibcite{simanjuntak2019}{{25}{2019}{{Simanjuntak et~al.}}{{Simanjuntak, K. and Reckien}}}
\bibcite{stewart2012}{{26}{2012}{{Stewart and Oke}}{{}}}
\bibcite{tam2018}{{27}{2018}{{Tam et~al.}}{{Tam, Abd~Rahman, Harun and Kaoje}}}
\bibcite{theodoridis2008}{{28}{2008}{{Theodoridis and Koutroumbas}}{{}}}
\bibcite{tomas2016}{{29}{2016}{{Tom\IeC {\'a}s et~al.}}{{Tom\IeC {\'a}s, Fonseca, Almeida, Leonardi and Pereira}}}
\bibcite{webb2011}{{30}{2011}{{Webb and Copsey}}{{}}}
\bibcite{wieland2016}{{31}{2016}{{Wieland et~al.}}{{Wieland, Torres, Pittore and Benito}}}
