\relax 
\catcode `"\active 
\citation{sotero2014}
\citation{tomas2016}
\citation{banzhaf2008}
\citation{banzhaf2009}
\citation{bohm1998}
\citation{montanges2015}
\babel@aux{portuguese}{}
\@writefile{toc}{\contentsline {section}{\numberline {1}Introdu\IeC {\c c}\IeC {\~a}o}{1}}
\citation{berger2018}
\citation{novack2017}
\citation{mather2004}
\citation{wieland2016}
\citation{tam2018}
\citation{simanjuntak2019}
\citation{herold2005}
\citation{herold2002b,herold2003}
\citation{lu2007}
\citation{bruzzone2009}
\citation{mountrakis2011}
\citation{theodoridis2008,webb2011}
\citation{moon2009}
\citation{pauleit2000}
\@writefile{toc}{\contentsline {section}{\numberline {2}Theoretical background}{3}}
\newlabel{theoreticalbackground}{{2}{3}}
\@writefile{toc}{\contentsline {subsection}{\numberline {2.1}A brief discussion on image classification}{3}}
\@writefile{toc}{\contentsline {subsection}{\numberline {2.2}Tipos de Estrutura Urbana}{3}}
\newlabel{ssec:teu}{{2.2}{3}}
\citation{hecht2013}
\citation{banzhaf2008}
\citation{herold2003}
\citation{deng2009}
\citation{lee2011}
\newlabel{fig:img_TEUs_ex}{{1}{4}}
\@writefile{toc}{\contentsline {subsection}{\numberline {2.3}M\IeC {\'e}tricas espaciais}{4}}
\newlabel{ssec:metricas}{{2.3}{4}}
\newlabel{vizinhos}{{1}{5}}
\newlabel{manchas}{{2}{5}}
\newlabel{pctcbrtr}{{3}{5}}
\newlabel{coefvar}{{4}{5}}
\newlabel{denman}{{5}{5}}
\newlabel{denbor}{{6}{5}}
\@writefile{toc}{\contentsline {section}{\numberline {3}Proposta de mapeamento de TEU baseado em classifica\IeC {\c c}\IeC {\~a}o de m\IeC {\'e}tricas espaciais}{6}}
\newlabel{sec:proposta}{{3}{6}}
\newlabel{fig:method_flux}{{2}{6}}
\@writefile{toc}{\contentsline {section}{\numberline {4}Experiments}{7}}
\newlabel{sec:experiments}{{4}{7}}
\@writefile{toc}{\contentsline {subsection}{\numberline {4.1}Study area and data}{7}}
\newlabel{ssec:studyarea}{{4.1}{7}}
\newlabel{fig:areaestudo}{{3}{7}}
\citation{chavez1989}
\newlabel{fig:imgStudy}{{4(a)}{8}}
\newlabel{sub@fig:imgStudy}{{(a)}{8}}
\newlabel{fig:spatDistPrimarySamples}{{4(b)}{8}}
\newlabel{sub@fig:spatDistPrimarySamples}{{(b)}{8}}
\newlabel{fig:spatDistUSTSamples}{{4(c)}{8}}
\newlabel{sub@fig:spatDistUSTSamples}{{(c)}{8}}
\@writefile{lof}{\contentsline {subfigure}{\numberline{(a)}{\ignorespaces {Study image}}}{8}}
\@writefile{lof}{\contentsline {subfigure}{\numberline{(b)}{\ignorespaces {Primary samples}}}{8}}
\@writefile{lof}{\contentsline {subfigure}{\numberline{(c)}{\ignorespaces {UST samples}}}{8}}
\newlabel{ImagensEstudo}{{4}{8}}
\citation{theodoridis2008}
\citation{congalton2009}
\newlabel{tab:samplesPrimaryUts}{{1}{9}}
\@writefile{toc}{\contentsline {subsection}{\numberline {4.2}Experiment design}{9}}
\newlabel{ssec:design}{{4.2}{9}}
\citation{negri2016}
\citation{zucker1976}
\citation{congalton2009}
\@writefile{toc}{\contentsline {subsection}{\numberline {4.3}Results}{10}}
\newlabel{ssec:results}{{4.3}{10}}
\newlabel{fig:ClassPrim_RBF_OAA}{{5(a)}{11}}
\newlabel{sub@fig:ClassPrim_RBF_OAA}{{(a)}{11}}
\newlabel{fig:ClassPrim_RBF_OAO}{{5(b)}{11}}
\newlabel{sub@fig:ClassPrim_RBF_OAO}{{(b)}{11}}
\newlabel{fig:ClassPrim_Pol_OAA}{{5(c)}{11}}
\newlabel{sub@fig:ClassPrim_Pol_OAA}{{(c)}{11}}
\newlabel{fig:ClassPrim_Pol_OAO}{{5(d)}{11}}
\newlabel{sub@fig:ClassPrim_Pol_OAO}{{(d)}{11}}
\newlabel{fig:ClassPrim_Lin_OAA}{{5(e)}{11}}
\newlabel{sub@fig:ClassPrim_Lin_OAA}{{(e)}{11}}
\newlabel{fig:ClassPrim_Lin_OAO}{{5(f)}{11}}
\newlabel{sub@fig:ClassPrim_Lin_OAO}{{(f)}{11}}
\@writefile{lof}{\contentsline {subfigure}{\numberline{(a)}{\ignorespaces {RBF/OAA}}}{11}}
\@writefile{lof}{\contentsline {subfigure}{\numberline{(b)}{\ignorespaces {RBF/OAO}}}{11}}
\@writefile{lof}{\contentsline {subfigure}{\numberline{(c)}{\ignorespaces {Polinomial/OAA}}}{11}}
\@writefile{lof}{\contentsline {subfigure}{\numberline{(d)}{\ignorespaces {Polinomial/OAO}}}{11}}
\@writefile{lof}{\contentsline {subfigure}{\numberline{(e)}{\ignorespaces {Linear/OAA}}}{11}}
\@writefile{lof}{\contentsline {subfigure}{\numberline{(f)}{\ignorespaces {Linear/OAO}}}{11}}
\newlabel{fig:GrafsprimCla}{{5}{11}}
\newlabel{fig:bestPrimClass}{{6}{12}}
\newlabel{fig:graphAccUTS}{{4.3}{13}}
\newlabel{fig:utsCla}{{7}{13}}
\newlabel{fig:RBC100}{{8(a)}{14}}
\newlabel{sub@fig:RBC100}{{(a)}{14}}
\newlabel{fig:RBC300}{{8(b)}{14}}
\newlabel{sub@fig:RBC300}{{(b)}{14}}
\newlabel{fig:RBC500}{{8(c)}{14}}
\newlabel{sub@fig:RBC500}{{(c)}{14}}
\@writefile{lof}{\contentsline {subfigure}{\numberline{(a)}{\ignorespaces {Melhor Classifica\IeC {\c c}\IeC {\~a}o para Limiar de 100.}}}{14}}
\@writefile{lof}{\contentsline {subfigure}{\numberline{(b)}{\ignorespaces {Melhor Classifica\IeC {\c c}\IeC {\~a}o para Limiar de 300.}}}{14}}
\@writefile{lof}{\contentsline {subfigure}{\numberline{(c)}{\ignorespaces {Melhor Classifica\IeC {\c c}\IeC {\~a}o para Limiar de 500.}}}{14}}
\newlabel{fig:claRBC}{{8}{14}}
\newlabel{tab:TH_rho_RBC}{{2}{14}}
\newlabel{fig:BestClassTEU}{{9(a)}{15}}
\newlabel{sub@fig:BestClassTEU}{{(a)}{15}}
\newlabel{fig:groundtruth}{{9(b)}{15}}
\newlabel{sub@fig:groundtruth}{{(b)}{15}}
\newlabel{fig:BestClassTEU}{{9(c)}{15}}
\newlabel{sub@fig:BestClassTEU}{{(c)}{15}}
\newlabel{fig:groundtruth}{{9(d)}{15}}
\newlabel{sub@fig:groundtruth}{{(d)}{15}}
\@writefile{lof}{\contentsline {subfigure}{\numberline{(a)}{\ignorespaces {$kappa=0.862$, kernel RBF, $\gamma = 0.25$, $C=100$ e estrat\IeC {\'e}gia OAA.}}}{15}}
\@writefile{lof}{\contentsline {subfigure}{\numberline{(b)}{\ignorespaces {$kappa=0.858$, kernel RBF, $\gamma = 3.00$, $C=100$ e estrat\IeC {\'e}gia OAO.}}}{15}}
\@writefile{lof}{\contentsline {subfigure}{\numberline{(c)}{\ignorespaces {$kappa=0.872$, kernel polinomial, $p=4$, $C=10000$ e estrat\IeC {\'e}gia OAA.}}}{15}}
\@writefile{lof}{\contentsline {subfigure}{\numberline{(d)}{\ignorespaces {Classifica\IeC {\c c}\IeC {\~a}o manual utilizada como verdade de campo.}}}{15}}
\newlabel{fig:CompClass}{{9}{15}}
\bibstyle{tfcad}
\bibdata{BibTex_FAPESP_LUCCAS}
\bibcite{banzhaf2009}{{1}{2009}{{Banzhaf, H\"ofer, and Romero}}{{}}}
\bibcite{banzhaf2008}{{2}{2008}{{Banzhaf and Hofer}}{{}}}
\bibcite{berger2018}{{3}{2018}{{Berger et~al.}}{{}}}
\@writefile{toc}{\contentsline {section}{\numberline {5}Conclusions}{16}}
\newlabel{sec:conclusions}{{5}{16}}
\bibcite{bohm1998}{{4}{1998}{{B\"ohm}}{{}}}
\bibcite{bruzzone2009}{{5}{2009}{{Bruzzone and Persello}}{{}}}
\bibcite{chavez1989}{{6}{1989}{{Chavez and Kwarteng}}{{}}}
\bibcite{congalton2009}{{7}{2009}{{Congalton and Green}}{{}}}
\bibcite{deng2009}{{8}{2009}{{Deng et~al.}}{{}}}
\bibcite{hecht2013}{{9}{2013}{{Hecht et~al.}}{{}}}
\bibcite{herold2003}{{10}{2003}{{Herold, Goldstein, and Clarke}}{{}}}
\bibcite{herold2005}{{11}{2005}{{Herold et~al.}}{{}}}
\bibcite{herold2002b}{{12}{2002}{{Herold, Scepan, and Clarke}}{{}}}
\bibcite{lee2011}{{13}{2011}{{Lee and Choe}}{{}}}
\bibcite{lu2007}{{14}{2007}{{Lu and Weng}}{{}}}
\bibcite{mather2004}{{15}{2004}{{Mather}}{{}}}
\bibcite{montanges2015}{{16}{2015}{{{Montanges} et~al.}}{{}}}
\bibcite{moon2009}{{17}{2009}{{Moon et~al.}}{{}}}
\bibcite{mountrakis2011}{{18}{2011}{{Mountrakis, Im, and Ogole}}{{}}}
\bibcite{negri2016}{{19}{2016}{{Negri et~al.}}{{}}}
\bibcite{novack2017}{{20}{2017}{{Novack and Stilla}}{{}}}
\bibcite{pauleit2000}{{21}{2000}{{Pauleit and Duhme}}{{}}}
\bibcite{simanjuntak2019}{{22}{2019}{{Simanjuntak, Kuffer, and Reckien}}{{}}}
\bibcite{sotero2014}{{23}{2014}{{Sotero}}{{}}}
\bibcite{tam2018}{{24}{2018}{{Tam et~al.}}{{}}}
\bibcite{theodoridis2008}{{25}{2008}{{Theodoridis and Koutroumbas}}{{}}}
\bibcite{tomas2016}{{26}{2016}{{Tom\IeC {\'a}s et~al.}}{{}}}
\bibcite{webb2011}{{27}{2011}{{Webb and Copsey}}{{}}}
\bibcite{wieland2016}{{28}{2016}{{Wieland et~al.}}{{}}}
\bibcite{zucker1976}{{29}{1976}{{Zucker}}{{}}}
