\begin{tabular}{cccccccccccclllllllllll}
\hline
                                               &                         & \multicolumn{21}{c}{$\rho$}                                                                                                                                                                                                                                                                                                                                                                                                                                                                                                                                                                                                              \\ \hline
                                               &                         & 1                    & 2                        & 3                            & 4                        & 5                        & 6                            & 7                            & 8                            & 9                            & 10                           & 11                       & 12                       & 13                           & 14                           & 15                           & 16                           & 17                           & 18                           & 19                           & 20                           & Best RB                  \\ \hline
\multicolumn{1}{c|}{}                          & \multicolumn{1}{c|}{1}  & -                    & {\color[HTML]{32CB00} 0} & {\color[HTML]{32CB00} 0}     & {\color[HTML]{32CB00} 0} & {\color[HTML]{32CB00} 0} & {\color[HTML]{32CB00} 0}     & {\color[HTML]{32CB00} 0}     & {\color[HTML]{32CB00} 0}     & {\color[HTML]{32CB00} 0}     & {\color[HTML]{32CB00} 0}     & {\color[HTML]{32CB00} 0} & {\color[HTML]{32CB00} 0} & {\color[HTML]{32CB00} 0}     & {\color[HTML]{32CB00} 0}     & {\color[HTML]{32CB00} 0}     & {\color[HTML]{32CB00} 0}     & {\color[HTML]{32CB00} 0}     & {\color[HTML]{32CB00} 0}     & {\color[HTML]{32CB00} 0}     & {\color[HTML]{32CB00} 0}     & {\color[HTML]{32CB00} 0} \\
\multicolumn{1}{c|}{}                          & \multicolumn{1}{c|}{2}  &                      & -                        & {\color[HTML]{32CB00} 0.002} & {\color[HTML]{32CB00} 0} & {\color[HTML]{32CB00} 0} & {\color[HTML]{32CB00} 0}     & {\color[HTML]{32CB00} 0}     & {\color[HTML]{32CB00} 0}     & {\color[HTML]{32CB00} 0}     & {\color[HTML]{32CB00} 0}     & {\color[HTML]{32CB00} 0} & {\color[HTML]{32CB00} 0} & {\color[HTML]{32CB00} 0}     & {\color[HTML]{32CB00} 0}     & {\color[HTML]{32CB00} 0}     & {\color[HTML]{32CB00} 0}     & {\color[HTML]{32CB00} 0}     & {\color[HTML]{32CB00} 0}     & {\color[HTML]{32CB00} 0}     & {\color[HTML]{32CB00} 0}     & {\color[HTML]{32CB00} 0} \\
\multicolumn{1}{c|}{}                          & \multicolumn{1}{c|}{3}  &                      &                          & -                            & {\color[HTML]{32CB00} 0} & {\color[HTML]{32CB00} 0} & {\color[HTML]{32CB00} 0}     & {\color[HTML]{32CB00} 0}     & {\color[HTML]{32CB00} 0}     & {\color[HTML]{32CB00} 0}     & {\color[HTML]{32CB00} 0}     & {\color[HTML]{32CB00} 0} & {\color[HTML]{32CB00} 0} & {\color[HTML]{32CB00} 0}     & {\color[HTML]{32CB00} 0}     & {\color[HTML]{32CB00} 0}     & {\color[HTML]{32CB00} 0}     & {\color[HTML]{32CB00} 0}     & {\color[HTML]{32CB00} 0}     & {\color[HTML]{32CB00} 0}     & {\color[HTML]{32CB00} 0}     & {\color[HTML]{32CB00} 0} \\
\multicolumn{1}{c|}{}                          & \multicolumn{1}{c|}{4}  &                      &                          &                              & -                        & {\color[HTML]{32CB00} 0} & {\color[HTML]{32CB00} 0}     & {\color[HTML]{32CB00} 0}     & {\color[HTML]{32CB00} 0}     & {\color[HTML]{32CB00} 0}     & {\color[HTML]{32CB00} 0}     & {\color[HTML]{32CB00} 0} & {\color[HTML]{32CB00} 0} & {\color[HTML]{32CB00} 0}     & {\color[HTML]{32CB00} 0}     & {\color[HTML]{32CB00} 0}     & {\color[HTML]{32CB00} 0}     & {\color[HTML]{32CB00} 0}     & {\color[HTML]{32CB00} 0}     & {\color[HTML]{32CB00} 0}     & {\color[HTML]{32CB00} 0}     & {\color[HTML]{32CB00} 0} \\
\multicolumn{1}{c|}{}                          & \multicolumn{1}{c|}{5}  &                      &                          &                              &                          & -                        & {\color[HTML]{32CB00} 0.001} & {\color[HTML]{32CB00} 0.001} & {\color[HTML]{000000} 0.298} & {\color[HTML]{32CB00} 0}     & {\color[HTML]{32CB00} 0}     & {\color[HTML]{32CB00} 0} & {\color[HTML]{32CB00} 0} & {\color[HTML]{32CB00} 0}     & {\color[HTML]{32CB00} 0}     & {\color[HTML]{32CB00} 0}     & {\color[HTML]{32CB00} 0}     & {\color[HTML]{32CB00} 0}     & {\color[HTML]{32CB00} 0}     & {\color[HTML]{32CB00} 0}     & {\color[HTML]{32CB00} 0}     & {\color[HTML]{32CB00} 0} \\
\multicolumn{1}{c|}{}                          & \multicolumn{1}{c|}{6}  &                      &                          &                              &                          &                          & -                            & {\color[HTML]{000000} 0.478} & {\color[HTML]{32CB00} 0}     & {\color[HTML]{32CB00} 0}     & {\color[HTML]{32CB00} 0}     & {\color[HTML]{32CB00} 0} & {\color[HTML]{32CB00} 0} & {\color[HTML]{32CB00} 0}     & {\color[HTML]{32CB00} 0}     & {\color[HTML]{32CB00} 0}     & {\color[HTML]{32CB00} 0}     & {\color[HTML]{32CB00} 0}     & {\color[HTML]{32CB00} 0}     & {\color[HTML]{32CB00} 0}     & {\color[HTML]{32CB00} 0}     & {\color[HTML]{32CB00} 0} \\
\multicolumn{1}{c|}{}                          & \multicolumn{1}{c|}{7}  &                      &                          &                              &                          &                          &                              & -                            & {\color[HTML]{32CB00} 0}     & {\color[HTML]{32CB00} 0}     & {\color[HTML]{32CB00} 0}     & {\color[HTML]{32CB00} 0} & {\color[HTML]{32CB00} 0} & {\color[HTML]{32CB00} 0}     & {\color[HTML]{32CB00} 0}     & {\color[HTML]{32CB00} 0}     & {\color[HTML]{32CB00} 0}     & {\color[HTML]{32CB00} 0}     & {\color[HTML]{32CB00} 0}     & {\color[HTML]{32CB00} 0}     & {\color[HTML]{32CB00} 0}     & {\color[HTML]{32CB00} 0} \\
\multicolumn{1}{c|}{}                          & \multicolumn{1}{c|}{8}  &                      &                          &                              &                          &                          &                              &                              & -                            & {\color[HTML]{32CB00} 0.001} & {\color[HTML]{32CB00} 0.003} & {\color[HTML]{32CB00} 0} & {\color[HTML]{32CB00} 0} & {\color[HTML]{32CB00} 0}     & {\color[HTML]{32CB00} 0}     & {\color[HTML]{32CB00} 0}     & {\color[HTML]{32CB00} 0}     & {\color[HTML]{32CB00} 0}     & {\color[HTML]{32CB00} 0}     & {\color[HTML]{32CB00} 0}     & {\color[HTML]{32CB00} 0}     & {\color[HTML]{32CB00} 0} \\
\multicolumn{1}{c|}{}                          & \multicolumn{1}{c|}{9}  &                      &                          &                              &                          &                          &                              &                              &                              & -                            & {\color[HTML]{000000} 0.405} & {\color[HTML]{32CB00} 0} & {\color[HTML]{32CB00} 0} & {\color[HTML]{32CB00} 0}     & {\color[HTML]{32CB00} 0}     & {\color[HTML]{32CB00} 0}     & {\color[HTML]{32CB00} 0}     & {\color[HTML]{32CB00} 0}     & {\color[HTML]{32CB00} 0}     & {\color[HTML]{32CB00} 0}     & {\color[HTML]{32CB00} 0}     & {\color[HTML]{32CB00} 0} \\
\multicolumn{1}{c|}{}                          & \multicolumn{1}{c|}{10} &                      &                          &                              &                          &                          &                              &                              &                              &                              & -                            & {\color[HTML]{32CB00} 0} & {\color[HTML]{32CB00} 0} & {\color[HTML]{32CB00} 0}     & {\color[HTML]{32CB00} 0}     & {\color[HTML]{32CB00} 0}     & {\color[HTML]{32CB00} 0}     & {\color[HTML]{32CB00} 0}     & {\color[HTML]{32CB00} 0}     & {\color[HTML]{32CB00} 0}     & {\color[HTML]{32CB00} 0}     & {\color[HTML]{32CB00} 0} \\
\multicolumn{1}{c|}{}                          & \multicolumn{1}{l|}{11} & \multicolumn{1}{l}{} & \multicolumn{1}{l}{}     & \multicolumn{1}{l}{}         & \multicolumn{1}{l}{}     & \multicolumn{1}{l}{}     & \multicolumn{1}{l}{}         & \multicolumn{1}{l}{}         & \multicolumn{1}{l}{}         & \multicolumn{1}{l}{}         & \multicolumn{1}{l}{}         & -                        & {\color[HTML]{32CB00} 0} & {\color[HTML]{32CB00} 0}     & {\color[HTML]{32CB00} 0.004} & {\color[HTML]{000000} 0.309} & {\color[HTML]{000000} 0.471} & {\color[HTML]{32CB00} 0}     & {\color[HTML]{32CB00} 0}     & {\color[HTML]{32CB00} 0}     & {\color[HTML]{32CB00} 0}     & {\color[HTML]{32CB00} 0} \\
\multicolumn{1}{c|}{}                          & \multicolumn{1}{l|}{12} & \multicolumn{1}{l}{} & \multicolumn{1}{l}{}     & \multicolumn{1}{l}{}         & \multicolumn{1}{l}{}     & \multicolumn{1}{l}{}     & \multicolumn{1}{l}{}         & \multicolumn{1}{l}{}         & \multicolumn{1}{l}{}         & \multicolumn{1}{l}{}         & \multicolumn{1}{l}{}         &                          & -                        & {\color[HTML]{FFCB2F} 0.059} & {\color[HTML]{32CB00} 0.001} & {\color[HTML]{32CB00} 0}     & {\color[HTML]{32CB00} 0}     & {\color[HTML]{000000} 0.145} & {\color[HTML]{000000} 0.127} & {\color[HTML]{32CB00} 0.017} & {\color[HTML]{32CB00} 0.002} & {\color[HTML]{32CB00} 0} \\
\multicolumn{1}{c|}{}                          & \multicolumn{1}{l|}{13} & \multicolumn{1}{l}{} & \multicolumn{1}{l}{}     & \multicolumn{1}{l}{}         & \multicolumn{1}{l}{}     & \multicolumn{1}{l}{}     & \multicolumn{1}{l}{}         & \multicolumn{1}{l}{}         & \multicolumn{1}{l}{}         & \multicolumn{1}{l}{}         & \multicolumn{1}{l}{}         &                          &                          & -                            & {\color[HTML]{32CB00} 0}     & {\color[HTML]{32CB00} 0}     & {\color[HTML]{32CB00} 0}     & {\color[HTML]{32CB00} 0.004} & {\color[HTML]{000000} 0.334} & {\color[HTML]{000000} 0.295} & {\color[HTML]{000000} 0.102} & {\color[HTML]{32CB00} 0} \\
\multicolumn{1}{c|}{}                          & \multicolumn{1}{l|}{14} & \multicolumn{1}{l}{} & \multicolumn{1}{l}{}     & \multicolumn{1}{l}{}         & \multicolumn{1}{l}{}     & \multicolumn{1}{l}{}     & \multicolumn{1}{l}{}         & \multicolumn{1}{l}{}         & \multicolumn{1}{l}{}         & \multicolumn{1}{l}{}         & \multicolumn{1}{l}{}         &                          &                          &                              & -                            & {\color[HTML]{32CB00} 0.001} & {\color[HTML]{32CB00} 0.005} & {\color[HTML]{32CB00} 0.027} & {\color[HTML]{32CB00} 0}     & {\color[HTML]{32CB00} 0}     & {\color[HTML]{32CB00} 0}     & {\color[HTML]{32CB00} 0} \\
\multicolumn{1}{c|}{}                          & \multicolumn{1}{l|}{15} & \multicolumn{1}{l}{} & \multicolumn{1}{l}{}     & \multicolumn{1}{l}{}         & \multicolumn{1}{l}{}     & \multicolumn{1}{l}{}     & \multicolumn{1}{l}{}         & \multicolumn{1}{l}{}         & \multicolumn{1}{l}{}         & \multicolumn{1}{l}{}         & \multicolumn{1}{l}{}         &                          &                          &                              &                              & -                            & {\color[HTML]{000000} 0.284} & {\color[HTML]{32CB00} 0}     & {\color[HTML]{32CB00} 0}     & {\color[HTML]{32CB00} 0}     & {\color[HTML]{32CB00} 0}     & {\color[HTML]{32CB00} 0} \\
\multicolumn{1}{c|}{}                          & \multicolumn{1}{l|}{16} & \multicolumn{1}{l}{} & \multicolumn{1}{l}{}     & \multicolumn{1}{l}{}         & \multicolumn{1}{l}{}     & \multicolumn{1}{l}{}     & \multicolumn{1}{l}{}         & \multicolumn{1}{l}{}         & \multicolumn{1}{l}{}         & \multicolumn{1}{l}{}         & \multicolumn{1}{l}{}         &                          &                          &                              &                              &                              & -                            & {\color[HTML]{32CB00} 0}     & {\color[HTML]{32CB00} 0}     & {\color[HTML]{32CB00} 0}     & {\color[HTML]{32CB00} 0}     & {\color[HTML]{32CB00} 0} \\
\multicolumn{1}{c|}{}                          & \multicolumn{1}{l|}{17} & \multicolumn{1}{l}{} & \multicolumn{1}{l}{}     & \multicolumn{1}{l}{}         & \multicolumn{1}{l}{}     & \multicolumn{1}{l}{}     & \multicolumn{1}{l}{}         & \multicolumn{1}{l}{}         & \multicolumn{1}{l}{}         & \multicolumn{1}{l}{}         & \multicolumn{1}{l}{}         &                          &                          &                              &                              &                              &                              & -                            & {\color[HTML]{32CB00} 0.014} & {\color[HTML]{32CB00} 0.001} & {\color[HTML]{32CB00} 0}     & {\color[HTML]{32CB00} 0} \\
\multicolumn{1}{c|}{}                          & \multicolumn{1}{l|}{18} & \multicolumn{1}{l}{} & \multicolumn{1}{l}{}     & \multicolumn{1}{l}{}         & \multicolumn{1}{l}{}     & \multicolumn{1}{l}{}     & \multicolumn{1}{l}{}         & \multicolumn{1}{l}{}         & \multicolumn{1}{l}{}         & \multicolumn{1}{l}{}         & \multicolumn{1}{l}{}         &                          &                          &                              &                              &                              &                              &                              & -                            & {\color[HTML]{000000} 0.165} & {\color[HTML]{32CB00} 0.044} & {\color[HTML]{32CB00} 0} \\
\multicolumn{1}{c|}{}                          & \multicolumn{1}{l|}{19} & \multicolumn{1}{l}{} & \multicolumn{1}{l}{}     & \multicolumn{1}{l}{}         & \multicolumn{1}{l}{}     & \multicolumn{1}{l}{}     & \multicolumn{1}{l}{}         & \multicolumn{1}{l}{}         & \multicolumn{1}{l}{}         & \multicolumn{1}{l}{}         & \multicolumn{1}{l}{}         &                          &                          &                              &                              &                              &                              &                              &                              & -                            & {\color[HTML]{000000} 0.232} & {\color[HTML]{32CB00} 0} \\
\multicolumn{1}{c|}{\multirow{-20}{*}{$\rho$}} & \multicolumn{1}{l|}{20} & \multicolumn{1}{l}{} & \multicolumn{1}{l}{}     & \multicolumn{1}{l}{}         & \multicolumn{1}{l}{}     & \multicolumn{1}{l}{}     & \multicolumn{1}{l}{}         & \multicolumn{1}{l}{}         & \multicolumn{1}{l}{}         & \multicolumn{1}{l}{}         & \multicolumn{1}{l}{}         &                          &                          &                              &                              &                              &                              &                              &                              &                              & -                            & {\color[HTML]{32CB00} 0} \\ \hline
\end{tabular}