\relax 
\providecommand\tcolorbox@label[2]{}
\newlabel{paramsOLI}{{1(a)}{3}}
\newlabel{sub@paramsOLI}{{(a)}{3}}
\newlabel{paramsSent}{{1(b)}{3}}
\newlabel{sub@paramsSent}{{(b)}{3}}
\newlabel{paramsAlos}{{1(c)}{3}}
\newlabel{sub@paramsAlos}{{(c)}{3}}
\@writefile{lof}{\contentsline {figure}{\numberline {10}{\ignorespaces Effects of parameters on proposed method over the analyzed datasets.}}{3}}
\@writefile{lof}{\contentsline {subfigure}{\numberline{(a)}{\ignorespaces {Mariana's Dam}}}{3}}
\@writefile{lof}{\contentsline {subfigure}{\numberline{(b)}{\ignorespaces {Brumadinho's Dam}}}{3}}
\@writefile{lof}{\contentsline {subfigure}{\numberline{(c)}{\ignorespaces {Curu\'{a}-Una's Dam}}}{3}}
\newlabel{blockOLI}{{11(a)}{5}}
\newlabel{sub@blockOLI}{{(a)}{5}}
\newlabel{blockSent}{{11(b)}{5}}
\newlabel{sub@blockSent}{{(b)}{5}}
\newlabel{blockAlos}{{11(c)}{5}}
\newlabel{sub@blockAlos}{{(c)}{5}}
\@writefile{lof}{\contentsline {figure}{\numberline {21}{\ignorespaces Identification of the homogeneous blocks in different study areas. Color compositions using the band-wise difference images and similar red-green-blue sequence in Figures 7 to 9, respectively.}}{5}}
\@writefile{lof}{\contentsline {subfigure}{\numberline{(a)}{\ignorespaces {Mariana's Dam}}}{5}}
\@writefile{lof}{\contentsline {subfigure}{\numberline{(b)}{\ignorespaces {Brumadinho's Dam}}}{5}}
\@writefile{lof}{\contentsline {subfigure}{\numberline{(c)}{\ignorespaces {Curu\'{a}-Una's Dam}}}{5}}
\newlabel{blocksFound}{{21}{5}}
\citation{InformationTheoryandStatisticsaTutorial}
\citation{RobustPolSARNLMLee}
\newlabel{paramsOLI}{{22(a)}{9}}
\newlabel{sub@paramsOLI}{{(a)}{9}}
\newlabel{paramsSent}{{22(b)}{9}}
\newlabel{sub@paramsSent}{{(b)}{9}}
\newlabel{paramsAlos}{{22(c)}{9}}
\newlabel{sub@paramsAlos}{{(c)}{9}}
\@writefile{lof}{\contentsline {figure}{\numberline {31}{\ignorespaces Effects of parameters on proposed method over the analyzed datasets.}}{9}}
\@writefile{lof}{\contentsline {subfigure}{\numberline{(a)}{\ignorespaces {Mariana's Dam}}}{9}}
\@writefile{lof}{\contentsline {subfigure}{\numberline{(b)}{\ignorespaces {Brumadinho's Dam}}}{9}}
\@writefile{lof}{\contentsline {subfigure}{\numberline{(c)}{\ignorespaces {Curu\'{a}-Una's Dam}}}{9}}
\bibstyle{spbasic}
\bibdata{../Common/bibUNCD}
\bibcite{InformationTheoryandStatisticsaTutorial}{{1}{2004}{{Csisz{\'{a}}r and Shields}}{{}}}
\bibcite{RobustPolSARNLMLee}{{2}{2014}{{Zhong et~al}}{{Zhong, Zhang, and Liu}}}
