\relax 
\@writefile{lof}{\contentsline {figure}{\numberline {1}{\ignorespaces Accuracy of Landsat-8 UST classification results obtained by the proposed and alternative method. The mean kappa value ($\mu $) and one standard deviation limits ($\mu \pm \sigma $) are included for reference.}}{3}}
\newlabel{fig:utsCla}{{1}{3}}
