\relax 
\providecommand\hyper@newdestlabel[2]{}
\providecommand\HyperFirstAtBeginDocument{\AtBeginDocument}
\HyperFirstAtBeginDocument{\ifx\hyper@anchor\@undefined
\global\let\oldcontentsline\contentsline
\gdef\contentsline#1#2#3#4{\oldcontentsline{#1}{#2}{#3}}
\global\let\oldnewlabel\newlabel
\gdef\newlabel#1#2{\newlabelxx{#1}#2}
\gdef\newlabelxx#1#2#3#4#5#6{\oldnewlabel{#1}{{#2}{#3}}}
\AtEndDocument{\ifx\hyper@anchor\@undefined
\let\contentsline\oldcontentsline
\let\newlabel\oldnewlabel
\fi}
\fi}
\global\let\hyper@last\relax 
\gdef\HyperFirstAtBeginDocument#1{#1}
\providecommand\HyField@AuxAddToFields[1]{}
\providecommand\HyField@AuxAddToCoFields[2]{}
\citation{aljoufie2013}
\citation{pham2011}
\citation{tomas2016}
\citation{banzhaf2008}
\citation{banzhaf2009}
\citation{bohm1998}
\citation{montanges2015}
\citation{stewart2012}
\citation{stewart2012}
\citation{berger2018}
\citation{novack2017}
\citation{mather2004}
\citation{wieland2016,tam2018,simanjuntak2019}
\citation{herold2005}
\citation{herold2002b,herold2003}
\@writefile{toc}{\contentsline {section}{\numberline {1}Introduction}{2}{section.1}}
\newlabel{intro}{{1}{2}{Introduction}{section.1}{}}
\citation{wieland2016}
\citation{lu2007}
\citation{bruzzone2009}
\citation{mountrakis2011}
\@writefile{toc}{\contentsline {section}{\numberline {2}Theoretical background}{3}{section.2}}
\newlabel{theoreticalbackground}{{2}{3}{Theoretical background}{section.2}{}}
\@writefile{toc}{\contentsline {subsection}{\numberline {2.1}A brief discussion on image classification}{3}{subsection.2.1}}
\citation{theodoridis2008}
\citation{webb2011}
\citation{Webb2002}
\citation{breiman2001random}
\citation{AnaniasNegri2021}
\newlabel{hipsep}{{1}{4}{A brief discussion on image classification}{equation.2.1}{}}
\newlabel{NSdual}{{2}{4}{A brief discussion on image classification}{equation.2.2}{}}
\citation{breiman2001random}
\citation{belgiu2016random}
\citation{LehnerBlaschke2019}
\citation{pauleit2000}
\citation{hecht2013}
\citation{moon2009}
\citation{banzhaf2008}
\citation{banzhaf2008}
\citation{herold2003}
\citation{deng2009}
\@writefile{toc}{\contentsline {subsection}{\numberline {2.2}Urban Structure Types}{5}{subsection.2.2}}
\newlabel{ssec:teu}{{2.2}{5}{Urban Structure Types}{subsection.2.2}{}}
\@writefile{toc}{\contentsline {subsection}{\numberline {2.3}Spatial metrics}{5}{subsection.2.3}}
\newlabel{ssec:metricas}{{2.3}{5}{Spatial metrics}{subsection.2.3}{}}
\@writefile{lof}{\contentsline {figure}{\numberline {1}{\ignorespaces Urban structure analysis according to the spatial scale. Adapted from \citet  {banzhaf2008}.\relax }}{6}{figure.caption.1}}
\providecommand*\caption@xref[2]{\@setref\relax\@undefined{#1}}
\newlabel{fig:img_TEUs_ex}{{1}{6}{Urban structure analysis according to the spatial scale. Adapted from \citet {banzhaf2008}.\relax }{figure.caption.1}{}}
\newlabel{vizinhos}{{3}{6}{Spatial metrics}{equation.2.3}{}}
\newlabel{manchas}{{4}{6}{Spatial metrics}{equation.2.4}{}}
\newlabel{pctcbrtr}{{5}{6}{Spatial metrics}{equation.2.5}{}}
\newlabel{coefvar}{{6}{7}{Spatial metrics}{equation.2.6}{}}
\newlabel{denman}{{7}{7}{Spatial metrics}{equation.2.7}{}}
\newlabel{denbor}{{8}{7}{Spatial metrics}{equation.2.8}{}}
\@writefile{toc}{\contentsline {section}{\numberline {3}UST mapping framework based on spatial metrics classification}{7}{section.3}}
\newlabel{sec:proposta}{{3}{7}{UST mapping framework based on spatial metrics classification}{section.3}{}}
\@writefile{lof}{\contentsline {figure}{\numberline {2}{\ignorespaces Method structure flowchart.\relax }}{8}{figure.caption.2}}
\newlabel{fig:method_flux}{{2}{8}{Method structure flowchart.\relax }{figure.caption.2}{}}
\@writefile{toc}{\contentsline {section}{\numberline {4}Experiments}{8}{section.4}}
\newlabel{sec:experiments}{{4}{8}{Experiments}{section.4}{}}
\citation{chavez1989}
\citation{pushparaj2017}
\@writefile{toc}{\contentsline {subsection}{\numberline {4.1}Study areas and data}{9}{subsection.4.1}}
\newlabel{ssec:studyarea}{{4.1}{9}{Study areas and data}{subsection.4.1}{}}
\@writefile{lof}{\contentsline {figure}{\numberline {3}{\ignorespaces Study areas location.\relax }}{9}{figure.caption.3}}
\newlabel{fig:areaestudo}{{3}{9}{Study areas location.\relax }{figure.caption.3}{}}
\citation{wieland2016}
\newlabel{fig:LSimgstudy}{{4(a)}{10}{Subfigure 4(a)}{subfigure.4.1}{}}
\newlabel{sub@fig:LSimgstudy}{{(a)}{10}{Subfigure 4(a)\relax }{subfigure.4.1}{}}
\newlabel{fig:sentimgstudy}{{4(b)}{10}{Subfigure 4(b)}{subfigure.4.2}{}}
\newlabel{sub@fig:sentimgstudy}{{(b)}{10}{Subfigure 4(b)\relax }{subfigure.4.2}{}}
\@writefile{lof}{\contentsline {figure}{\numberline {4}{\ignorespaces Study areas images in natural color composition.\relax }}{10}{figure.caption.4}}
\newlabel{ImagensEstudo}{{4}{10}{Study areas images in natural color composition.\relax }{figure.caption.4}{}}
\@writefile{lof}{\contentsline {subfigure}{\numberline{(a)}{\ignorespaces {Area 1 -- Landsat-8 OLI}}}{10}{figure.caption.4}}
\@writefile{lof}{\contentsline {subfigure}{\numberline{(b)}{\ignorespaces {Area 2 -- Sentinel-2 MSI}}}{10}{figure.caption.4}}
\newlabel{fig:LSPrimarySamples}{{5(a)}{11}{Subfigure 5(a)}{subfigure.5.1}{}}
\newlabel{sub@fig:LSPrimarySamples}{{(a)}{11}{Subfigure 5(a)\relax }{subfigure.5.1}{}}
\newlabel{fig:LSUSTSamples}{{5(b)}{11}{Subfigure 5(b)}{subfigure.5.2}{}}
\newlabel{sub@fig:LSUSTSamples}{{(b)}{11}{Subfigure 5(b)\relax }{subfigure.5.2}{}}
\newlabel{fig:SentPrimarySamples}{{5(c)}{11}{Subfigure 5(c)}{subfigure.5.3}{}}
\newlabel{sub@fig:SentPrimarySamples}{{(c)}{11}{Subfigure 5(c)\relax }{subfigure.5.3}{}}
\newlabel{fig:SentUSTSamples}{{5(d)}{11}{Subfigure 5(d)}{subfigure.5.4}{}}
\newlabel{sub@fig:SentUSTSamples}{{(d)}{11}{Subfigure 5(d)\relax }{subfigure.5.4}{}}
\@writefile{lof}{\contentsline {figure}{\numberline {5}{\ignorespaces Spatial distribution of training samples ({\relax \fontsize  {14.4}{16dd}\selectfont  $\bullet $}), point-shaped testing samples for primary classes ($\blacktriangle $), and region-shaped testing samples for UST classes ($\blacksquare $).\relax }}{11}{figure.caption.5}}
\newlabel{figSamples}{{5}{11}{Spatial distribution of training samples ({\Large $\bullet $}), point-shaped testing samples for primary classes ($\blacktriangle $), and region-shaped testing samples for UST classes ($\blacksquare $).\relax }{figure.caption.5}{}}
\@writefile{lof}{\contentsline {subfigure}{\numberline{(a)}{\ignorespaces {Area 1 -- primary samples}}}{11}{figure.caption.5}}
\@writefile{lof}{\contentsline {subfigure}{\numberline{(b)}{\ignorespaces {Area 1 -- UST samples}}}{11}{figure.caption.5}}
\@writefile{lof}{\contentsline {subfigure}{\numberline{(c)}{\ignorespaces {Area 2 -- primary samples}}}{11}{figure.caption.5}}
\@writefile{lof}{\contentsline {subfigure}{\numberline{(d)}{\ignorespaces {Area 2 -- UST samples}}}{11}{figure.caption.5}}
\@writefile{toc}{\contentsline {subsection}{\numberline {4.2}Experiment design}{11}{subsection.4.2}}
\newlabel{ssec:design}{{4.2}{11}{Experiment design}{subsection.4.2}{}}
\citation{congalton2009}
\citation{wieland2016}
\citation{grizonnet2017}
\citation{FukunagaHostetler1975}
\citation{Ho1998}
\citation{huang2015}
\@writefile{lot}{\contentsline {table}{\numberline {1}{\ignorespaces Training and testing samples of LULC primary and USTs classes for study Areas 1 and 2.\relax }}{12}{table.caption.6}}
\newlabel{tab:samplesPrimaryUst}{{1}{12}{Training and testing samples of LULC primary and USTs classes for study Areas 1 and 2.\relax }{table.caption.6}{}}
\citation{congalton2009}
\@writefile{toc}{\contentsline {subsection}{\numberline {4.3}Results}{13}{subsection.4.3}}
\newlabel{ssec:results}{{4.3}{13}{Results}{subsection.4.3}{}}
\@writefile{toc}{\contentsline {subsubsection}{\numberline {4.3.1}Area 1 -- Landsat-8 OLI}{13}{subsubsection.4.3.1}}
\newlabel{sssec:ls08}{{4.3.1}{13}{Area 1 -- Landsat-8 OLI}{subsubsection.4.3.1}{}}
\newlabel{fig:ClassPrim_Lin_OAA}{{6(a)}{14}{Subfigure 6(a)}{subfigure.6.1}{}}
\newlabel{sub@fig:ClassPrim_Lin_OAA}{{(a)}{14}{Subfigure 6(a)\relax }{subfigure.6.1}{}}
\newlabel{fig:ClassPrim_Pol_OAA}{{6(b)}{14}{Subfigure 6(b)}{subfigure.6.2}{}}
\newlabel{sub@fig:ClassPrim_Pol_OAA}{{(b)}{14}{Subfigure 6(b)\relax }{subfigure.6.2}{}}
\newlabel{fig:ClassPrim_RBF_OAA}{{6(c)}{14}{Subfigure 6(c)}{subfigure.6.3}{}}
\newlabel{sub@fig:ClassPrim_RBF_OAA}{{(c)}{14}{Subfigure 6(c)\relax }{subfigure.6.3}{}}
\newlabel{fig:ClassPrim_Lin_OAO}{{6(d)}{14}{Subfigure 6(d)}{subfigure.6.4}{}}
\newlabel{sub@fig:ClassPrim_Lin_OAO}{{(d)}{14}{Subfigure 6(d)\relax }{subfigure.6.4}{}}
\newlabel{fig:ClassPrim_Pol_OAO}{{6(e)}{14}{Subfigure 6(e)}{subfigure.6.5}{}}
\newlabel{sub@fig:ClassPrim_Pol_OAO}{{(e)}{14}{Subfigure 6(e)\relax }{subfigure.6.5}{}}
\newlabel{fig:ClassPrim_RBF_OAO}{{6(f)}{14}{Subfigure 6(f)}{subfigure.6.6}{}}
\newlabel{sub@fig:ClassPrim_RBF_OAO}{{(f)}{14}{Subfigure 6(f)\relax }{subfigure.6.6}{}}
\@writefile{lof}{\contentsline {figure}{\numberline {6}{\ignorespaces \leavevmode {\color {red}Accuracy of primary classifications for Area 1 according to distinct kernel functions and multiclass strategies.}\relax }}{14}{figure.caption.7}}
\newlabel{fig:GrafsprimCla}{{6}{14}{\textcolor {red}{Accuracy of primary classifications for Area 1 according to distinct kernel functions and multiclass strategies.}\relax }{figure.caption.7}{}}
\@writefile{lof}{\contentsline {subfigure}{\numberline{(a)}{\ignorespaces {Linear/OAA}}}{14}{figure.caption.7}}
\@writefile{lof}{\contentsline {subfigure}{\numberline{(b)}{\ignorespaces {Polynomial/OAA}}}{14}{figure.caption.7}}
\@writefile{lof}{\contentsline {subfigure}{\numberline{(c)}{\ignorespaces {RBF/OAA}}}{14}{figure.caption.7}}
\@writefile{lof}{\contentsline {subfigure}{\numberline{(d)}{\ignorespaces {Linear/OAO}}}{14}{figure.caption.7}}
\@writefile{lof}{\contentsline {subfigure}{\numberline{(e)}{\ignorespaces {Polynomial/OAO}}}{14}{figure.caption.7}}
\@writefile{lof}{\contentsline {subfigure}{\numberline{(f)}{\ignorespaces {RBF/OAO}}}{14}{figure.caption.7}}
\@writefile{lof}{\contentsline {figure}{\numberline {7}{\ignorespaces Accuracy of UST classifications for Area 1 obtained by the proposed and alternative method. The mean kappa value ($\mu $) and standard deviation limits ($\mu \pm \sigma $) are included for reference.\relax }}{15}{figure.caption.8}}
\newlabel{fig:utsCla}{{7}{15}{Accuracy of UST classifications for Area 1 obtained by the proposed and alternative method. The mean kappa value ($\mu $) and standard deviation limits ($\mu \pm \sigma $) are included for reference.\relax }{figure.caption.8}{}}
\newlabel{fig:BestPrimary}{{8(a)}{16}{Subfigure 8(a)}{subfigure.8.1}{}}
\newlabel{sub@fig:BestPrimary}{{(a)}{16}{Subfigure 8(a)\relax }{subfigure.8.1}{}}
\newlabel{fig:BestClassTEU3}{{8(b)}{16}{Subfigure 8(b)}{subfigure.8.2}{}}
\newlabel{sub@fig:BestClassTEU3}{{(b)}{16}{Subfigure 8(b)\relax }{subfigure.8.2}{}}
\newlabel{fig:RBC500}{{8(c)}{16}{Subfigure 8(c)}{subfigure.8.3}{}}
\newlabel{sub@fig:RBC500}{{(c)}{16}{Subfigure 8(c)\relax }{subfigure.8.3}{}}
\newlabel{fig:groundtruth}{{8(d)}{16}{Subfigure 8(d)}{subfigure.8.4}{}}
\newlabel{sub@fig:groundtruth}{{(d)}{16}{Subfigure 8(d)\relax }{subfigure.8.4}{}}
\@writefile{lof}{\contentsline {figure}{\numberline {8}{\ignorespaces Best classifications results and an empirical UST mapping for Area 1.\relax }}{16}{figure.caption.9}}
\newlabel{fig:CompClass}{{8}{16}{Best classifications results and an empirical UST mapping for Area 1.\relax }{figure.caption.9}{}}
\@writefile{lof}{\contentsline {subfigure}{\numberline{(a)}{\ignorespaces {Primary classification}}}{16}{figure.caption.9}}
\@writefile{lof}{\contentsline {subfigure}{\numberline{(b)}{\ignorespaces {Proposed method}}}{16}{figure.caption.9}}
\@writefile{lof}{\contentsline {subfigure}{\numberline{(c)}{\ignorespaces {Alternative method}}}{16}{figure.caption.9}}
\@writefile{lof}{\contentsline {subfigure}{\numberline{(d)}{\ignorespaces {Empirical classification}}}{16}{figure.caption.9}}
\@writefile{toc}{\contentsline {subsubsection}{\numberline {4.3.2}Area 2 -- Sentinel-2 MSI}{16}{subsubsection.4.3.2}}
\newlabel{sssec:sent2}{{4.3.2}{16}{Area 2 -- Sentinel-2 MSI}{subsubsection.4.3.2}{}}
\@writefile{lot}{\contentsline {table}{\numberline {2}{\ignorespaces $p$-values ($\times 10^{-3}$) from a bilateral test to compare kappa values from Landsat-8 UST classification of proposed and alternative methods. \leavevmode {\color {red}Bold values represent statistic equivalence between methods.}\relax }}{17}{table.caption.10}}
\newlabel{tab:TH_rho_RBC}{{2}{17}{$p$-values ($\times 10^{-3}$) from a bilateral test to compare kappa values from Landsat-8 UST classification of proposed and alternative methods. \textcolor {red}{Bold values represent statistic equivalence between methods.}\relax }{table.caption.10}{}}
\newlabel{fig:ClassPrim_RBF_OAO_Sent}{{9(a)}{18}{Subfigure 9(a)}{subfigure.9.1}{}}
\newlabel{sub@fig:ClassPrim_RBF_OAO_Sent}{{(a)}{18}{Subfigure 9(a)\relax }{subfigure.9.1}{}}
\newlabel{fig:ClassUST_Pol_OAA_Sent}{{9(b)}{18}{Subfigure 9(b)}{subfigure.9.2}{}}
\newlabel{sub@fig:ClassUST_Pol_OAA_Sent}{{(b)}{18}{Subfigure 9(b)\relax }{subfigure.9.2}{}}
\@writefile{lof}{\contentsline {figure}{\numberline {9}{\ignorespaces \leavevmode {\color {red}Accuracy profiles for primary (a) and UST (b) classifications for Area 2 according to the best kernel and multiclass strategy for each classification kind. In (b), the whiskers representing the minimum-maximum accuracy range, notches express the 95\% confidence range around the median, and black dots as extreme values.}\relax }}{18}{figure.caption.11}}
\newlabel{fig:GrafsprimClaSent}{{9}{18}{\textcolor {red}{Accuracy profiles for primary (a) and UST (b) classifications for Area 2 according to the best kernel and multiclass strategy for each classification kind. In (b), the whiskers representing the minimum-maximum accuracy range, notches express the 95\% confidence range around the median, and black dots as extreme values.}\relax }{figure.caption.11}{}}
\@writefile{lof}{\contentsline {subfigure}{\numberline{(a)}{\ignorespaces {RBF/OAO SVM configuration behavior for Sentinel-2 primary classification.}}}{18}{figure.caption.11}}
\@writefile{lof}{\contentsline {subfigure}{\numberline{(b)}{\ignorespaces {Pol/OAA SVM configuration behavior for Sentinel-2 UST classification.}}}{18}{figure.caption.11}}
\@writefile{toc}{\contentsline {section}{\numberline {5}Conclusions}{18}{section.5}}
\newlabel{sec:conclusions}{{5}{18}{Conclusions}{section.5}{}}
\newlabel{fig:BestPrimarySent}{{10(a)}{19}{Subfigure 10(a)}{subfigure.10.1}{}}
\newlabel{sub@fig:BestPrimarySent}{{(a)}{19}{Subfigure 10(a)\relax }{subfigure.10.1}{}}
\newlabel{fig:BestClassTEU_Sent}{{10(b)}{19}{Subfigure 10(b)}{subfigure.10.2}{}}
\newlabel{sub@fig:BestClassTEU_Sent}{{(b)}{19}{Subfigure 10(b)\relax }{subfigure.10.2}{}}
\newlabel{fig:BestClass_RF_Sent}{{10(c)}{19}{Subfigure 10(c)}{subfigure.10.3}{}}
\newlabel{sub@fig:BestClass_RF_Sent}{{(c)}{19}{Subfigure 10(c)\relax }{subfigure.10.3}{}}
\newlabel{fig:groundtruth_Sent}{{10(d)}{19}{Subfigure 10(d)}{subfigure.10.4}{}}
\newlabel{sub@fig:groundtruth_Sent}{{(d)}{19}{Subfigure 10(d)\relax }{subfigure.10.4}{}}
\@writefile{lof}{\contentsline {figure}{\numberline {10}{\ignorespaces Best classifications results and an empirical UST mapping for Area 2.\relax }}{19}{figure.caption.12}}
\newlabel{fig:CompClass_Sent}{{10}{19}{Best classifications results and an empirical UST mapping for Area 2.\relax }{figure.caption.12}{}}
\@writefile{lof}{\contentsline {subfigure}{\numberline{(a)}{\ignorespaces {Primary classification}}}{19}{figure.caption.12}}
\@writefile{lof}{\contentsline {subfigure}{\numberline{(b)}{\ignorespaces {Proposed method UST classification}}}{19}{figure.caption.12}}
\@writefile{lof}{\contentsline {subfigure}{\numberline{(c)}{\ignorespaces {Alternative method UST classification}}}{19}{figure.caption.12}}
\@writefile{lof}{\contentsline {subfigure}{\numberline{(d)}{\ignorespaces {Empirical classification}}}{19}{figure.caption.12}}
\bibstyle{spbasic}
\bibdata{BibTex_UST_LUCCAS}
\bibcite{aljoufie2013}{{1}{2013}{{Aljoufie et~al.}}{{Aljoufie, Zuidgeest, Brussel, and van Maarseveen}}}
\bibcite{AnaniasNegri2021}{{2}{2021}{{Ananias and Negri}}{{}}}
\bibcite{banzhaf2008}{{3}{2008}{{Banzhaf and Hofer}}{{}}}
\bibcite{banzhaf2009}{{4}{2009}{{Banzhaf et~al.}}{{Banzhaf, H\"ofer, and Romero}}}
\@writefile{lot}{\contentsline {table}{\numberline {3}{\ignorespaces $p$-values ($\times 10^{-3}$) from a bilateral test to compare kappa values from Sentinel-2 UST classification of proposed and alternative methods. \leavevmode {\color [rgb]{1,0,0}Bold values represent statistic equivalence between methods.}\relax }}{20}{table.caption.13}}
\newlabel{tab:TH_rho_Sent}{{3}{20}{$p$-values ($\times 10^{-3}$) from a bilateral test to compare kappa values from Sentinel-2 UST classification of proposed and alternative methods. \textcolor [rgb]{1,0,0}{Bold values represent statistic equivalence between methods.}\relax }{table.caption.13}{}}
\bibcite{belgiu2016random}{{5}{2016}{{Belgiu and Dr{\u {a}}gu{\c {t}}}}{{}}}
\bibcite{berger2018}{{6}{2018}{{Berger et~al.}}{{Berger, Voltersen, Schmullius, and Hese}}}
\bibcite{bohm1998}{{7}{1998}{{B\"ohm}}{{}}}
\bibcite{breiman2001random}{{8}{2001}{{Breiman}}{{}}}
\bibcite{bruzzone2009}{{9}{2009}{{Bruzzone and Persello}}{{}}}
\bibcite{chavez1989}{{10}{1989}{{Chavez and Kwarteng}}{{}}}
\bibcite{congalton2009}{{11}{2009}{{Congalton and Green}}{{}}}
\bibcite{deng2009}{{12}{2009}{{Deng et~al.}}{{Deng, Wand, Hong, and Qi}}}
\bibcite{FukunagaHostetler1975}{{13}{1975}{{Fukunaga and Hostetler}}{{}}}
\bibcite{grizonnet2017}{{14}{2017}{{Grizonnet et~al.}}{{Grizonnet, Michel, Poughon, Inglada, Savinaud, and Cresson}}}
\bibcite{hecht2013}{{15}{2013}{{Hecht et~al.}}{{Hecht, Herold, Meinel, and Buchroithner}}}
\bibcite{herold2002b}{{16}{2002}{{Herold et~al.}}{{Herold, Scepan, and Clarke}}}
\bibcite{herold2003}{{17}{2003}{{Herold et~al.}}{{Herold, Goldstein, and Clarke}}}
\bibcite{herold2005}{{18}{2005}{{Herold et~al.}}{{Herold, Hemphill, Dietzel, and Clarke}}}
\bibcite{Ho1998}{{19}{1998}{{Ho}}{{}}}
\bibcite{huang2015}{{20}{2015}{{Huang et~al.}}{{Huang, Liu, and Zhang}}}
\bibcite{LehnerBlaschke2019}{{21}{2019}{{Lehner and Blaschke}}{{}}}
\bibcite{lu2007}{{22}{2007}{{Lu and Weng}}{{}}}
\bibcite{mather2004}{{23}{2004}{{Mather}}{{}}}
\bibcite{montanges2015}{{24}{2015}{{{Montanges} et~al.}}{{{Montanges}, {Moser}, {Taubenb\IeC {\"o}ck}, {Wurm}, and {Tuia}}}}
\bibcite{moon2009}{{25}{2009}{{Moon et~al.}}{{Moon, Downes, Rujner, and Storch}}}
\bibcite{mountrakis2011}{{26}{2011}{{Mountrakis et~al.}}{{Mountrakis, Im, and Ogole}}}
\bibcite{novack2017}{{27}{2017}{{Novack and Stilla}}{{}}}
\bibcite{pauleit2000}{{28}{2000}{{Pauleit and Duhme}}{{}}}
\bibcite{pham2011}{{29}{2011}{{Pham et~al.}}{{Pham, Yamaguchi, and Bui}}}
\bibcite{pushparaj2017}{{30}{2017}{{Pushparaj and Hegde}}{{}}}
\bibcite{simanjuntak2019}{{31}{2019}{{Simanjuntak et~al.}}{{Simanjuntak, K., and Reckien}}}
\bibcite{stewart2012}{{32}{2012}{{Stewart and Oke}}{{}}}
\bibcite{tam2018}{{33}{2018}{{Tam et~al.}}{{Tam, Abd~Rahman, Harun, and Kaoje}}}
\bibcite{theodoridis2008}{{34}{2008}{{Theodoridis and Koutroumbas}}{{}}}
\bibcite{tomas2016}{{35}{2016}{{Tom\IeC {\'a}s et~al.}}{{Tom\IeC {\'a}s, Fonseca, Almeida, Leonardi, and Pereira}}}
\bibcite{Webb2002}{{36}{2002}{{Webb}}{{}}}
\bibcite{webb2011}{{37}{2011}{{Webb and Copsey}}{{}}}
\bibcite{wieland2016}{{38}{2016}{{Wieland et~al.}}{{Wieland, Torres, Pittore, and Benito}}}
